info face="Standard0965" size=16 bold=0 italic=0 charset="" unicode=0 stretchH=100 smooth=1 aa=1 padding=0,0,0,0 spacing=2,2
common lineHeight=30 base=24 scaleW=256 scaleH=128 pages=1 packed=0
page id=0 file="PixelHeavy.png"
chars count=95
char id=32     x=155   y=109   width=0     height=0     xoffset=0     yoffset=24    xadvance=8     page=0 chnl=0 letter="space"
char id=33     x=183   y=71    width=5     height=19    xoffset=2     yoffset=5     xadvance=10    page=0 chnl=0 letter="!"
char id=34     x=78    y=109   width=11    height=7     xoffset=0     yoffset=5     xadvance=12    page=0 chnl=0 letter="""
char id=35     x=2     y=92    width=15    height=15    xoffset=0     yoffset=7     xadvance=18    page=0 chnl=0 letter="#"
char id=36     x=11    y=2     width=15    height=23    xoffset=0     yoffset=3     xadvance=16    page=0 chnl=0 letter="$"
char id=37     x=205   y=50    width=13    height=19    xoffset=0     yoffset=5     xadvance=14    page=0 chnl=0 letter="%"
char id=38     x=189   y=2     width=18    height=19    xoffset=0     yoffset=5     xadvance=18    page=0 chnl=0 letter="&"
char id=39     x=100   y=109   width=5     height=7     xoffset=0     yoffset=5     xadvance=6     page=0 chnl=0 letter="'"
char id=40     x=28    y=2     width=9     height=23    xoffset=0     yoffset=3     xadvance=10    page=0 chnl=0 letter="("
char id=41     x=39    y=2     width=9     height=23    xoffset=0     yoffset=3     xadvance=10    page=0 chnl=0 letter=")"
char id=42     x=30    y=109   width=11    height=11    xoffset=0     yoffset=9     xadvance=12    page=0 chnl=0 letter="*"
char id=43     x=91    y=92    width=13    height=13    xoffset=0     yoffset=9     xadvance=14    page=0 chnl=0 letter="+"
char id=44     x=91    y=109   width=7     height=7     xoffset=0     yoffset=21    xadvance=8     page=0 chnl=0 letter=","
char id=45     x=107   y=109   width=13    height=5     xoffset=0     yoffset=13    xadvance=14    page=0 chnl=0 letter="-"
char id=46     x=131   y=109   width=5     height=5     xoffset=0     yoffset=19    xadvance=6     page=0 chnl=0 letter="."
char id=47     x=115   y=2     width=13    height=21    xoffset=0     yoffset=3     xadvance=14    page=0 chnl=0 letter="/"
char id=48     x=228   y=2     width=15    height=19    xoffset=0     yoffset=5     xadvance=16    page=0 chnl=0 letter="0"
char id=49     x=174   y=71    width=7     height=19    xoffset=0     yoffset=5     xadvance=10    page=0 chnl=0 letter="1"
char id=50     x=2     y=29    width=15    height=19    xoffset=0     yoffset=5     xadvance=16    page=0 chnl=0 letter="2"
char id=51     x=19    y=29    width=15    height=19    xoffset=0     yoffset=5     xadvance=16    page=0 chnl=0 letter="3"
char id=52     x=36    y=29    width=15    height=19    xoffset=0     yoffset=5     xadvance=16    page=0 chnl=0 letter="4"
char id=53     x=53    y=29    width=15    height=19    xoffset=0     yoffset=5     xadvance=16    page=0 chnl=0 letter="5"
char id=54     x=70    y=29    width=15    height=19    xoffset=0     yoffset=5     xadvance=16    page=0 chnl=0 letter="6"
char id=55     x=87    y=29    width=15    height=19    xoffset=0     yoffset=5     xadvance=16    page=0 chnl=0 letter="7"
char id=56     x=104   y=29    width=15    height=19    xoffset=0     yoffset=5     xadvance=16    page=0 chnl=0 letter="8"
char id=57     x=121   y=29    width=15    height=19    xoffset=0     yoffset=5     xadvance=16    page=0 chnl=0 letter="9"
char id=58     x=43    y=109   width=5     height=11    xoffset=2     yoffset=11    xadvance=8     page=0 chnl=0 letter=":"
char id=59     x=235   y=71    width=7     height=17    xoffset=0     yoffset=11    xadvance=8     page=0 chnl=0 letter=";"
char id=60     x=19    y=92    width=11    height=15    xoffset=0     yoffset=7     xadvance=12    page=0 chnl=0 letter="<"
char id=61     x=15    y=109   width=13    height=11    xoffset=0     yoffset=9     xadvance=14    page=0 chnl=0 letter="="
char id=62     x=32    y=92    width=11    height=15    xoffset=0     yoffset=7     xadvance=12    page=0 chnl=0 letter=">"
char id=63     x=220   y=50    width=13    height=19    xoffset=0     yoffset=5     xadvance=14    page=0 chnl=0 letter="?"
char id=64     x=211   y=71    width=22    height=17    xoffset=0     yoffset=9     xadvance=22    page=0 chnl=0 letter="@"
char id=65     x=138   y=29    width=15    height=19    xoffset=0     yoffset=5     xadvance=16    page=0 chnl=0 letter="A"
char id=66     x=155   y=29    width=15    height=19    xoffset=0     yoffset=5     xadvance=16    page=0 chnl=0 letter="B"
char id=67     x=172   y=29    width=15    height=19    xoffset=0     yoffset=5     xadvance=16    page=0 chnl=0 letter="C"
char id=68     x=189   y=29    width=15    height=19    xoffset=0     yoffset=5     xadvance=16    page=0 chnl=0 letter="D"
char id=69     x=206   y=29    width=15    height=19    xoffset=0     yoffset=5     xadvance=16    page=0 chnl=0 letter="E"
char id=70     x=223   y=29    width=15    height=19    xoffset=0     yoffset=5     xadvance=16    page=0 chnl=0 letter="F"
char id=71     x=2     y=50    width=15    height=19    xoffset=0     yoffset=5     xadvance=16    page=0 chnl=0 letter="G"
char id=72     x=19    y=50    width=15    height=19    xoffset=0     yoffset=5     xadvance=16    page=0 chnl=0 letter="H"
char id=73     x=190   y=71    width=5     height=19    xoffset=0     yoffset=5     xadvance=6     page=0 chnl=0 letter="I"
char id=74     x=235   y=50    width=13    height=19    xoffset=0     yoffset=5     xadvance=14    page=0 chnl=0 letter="J"
char id=75     x=36    y=50    width=15    height=19    xoffset=0     yoffset=5     xadvance=16    page=0 chnl=0 letter="K"
char id=76     x=2     y=71    width=13    height=19    xoffset=0     yoffset=5     xadvance=14    page=0 chnl=0 letter="L"
char id=77     x=168   y=2     width=19    height=19    xoffset=0     yoffset=5     xadvance=20    page=0 chnl=0 letter="M"
char id=78     x=53    y=50    width=15    height=19    xoffset=0     yoffset=5     xadvance=16    page=0 chnl=0 letter="N"
char id=79     x=70    y=50    width=15    height=19    xoffset=0     yoffset=5     xadvance=16    page=0 chnl=0 letter="O"
char id=80     x=87    y=50    width=15    height=19    xoffset=0     yoffset=5     xadvance=16    page=0 chnl=0 letter="P"
char id=81     x=97    y=2     width=16    height=21    xoffset=0     yoffset=5     xadvance=16    page=0 chnl=0 letter="Q"
char id=82     x=104   y=50    width=15    height=19    xoffset=0     yoffset=5     xadvance=16    page=0 chnl=0 letter="R"
char id=83     x=121   y=50    width=15    height=19    xoffset=0     yoffset=5     xadvance=16    page=0 chnl=0 letter="S"
char id=84     x=17    y=71    width=13    height=19    xoffset=0     yoffset=5     xadvance=14    page=0 chnl=0 letter="T"
char id=85     x=138   y=50    width=15    height=19    xoffset=0     yoffset=5     xadvance=16    page=0 chnl=0 letter="U"
char id=86     x=155   y=50    width=15    height=19    xoffset=0     yoffset=5     xadvance=16    page=0 chnl=0 letter="V"
char id=87     x=145   y=2     width=21    height=19    xoffset=0     yoffset=5     xadvance=22    page=0 chnl=0 letter="W"
char id=88     x=172   y=50    width=15    height=19    xoffset=0     yoffset=5     xadvance=16    page=0 chnl=0 letter="X"
char id=89     x=209   y=2     width=17    height=19    xoffset=0     yoffset=5     xadvance=18    page=0 chnl=0 letter="Y"
char id=90     x=32    y=71    width=13    height=19    xoffset=0     yoffset=5     xadvance=14    page=0 chnl=0 letter="Z"
char id=91     x=72    y=2     width=7     height=23    xoffset=0     yoffset=3     xadvance=8     page=0 chnl=0 letter="["
char id=92     x=130   y=2     width=13    height=21    xoffset=0     yoffset=3     xadvance=14    page=0 chnl=0 letter="\"
char id=93     x=81    y=2     width=7     height=23    xoffset=0     yoffset=3     xadvance=8     page=0 chnl=0 letter="]"
char id=94     x=50    y=109   width=11    height=9     xoffset=0     yoffset=5     xadvance=12    page=0 chnl=0 letter="^"
char id=95     x=138   y=109   width=15    height=3     xoffset=0     yoffset=21    xadvance=18    page=0 chnl=0 letter="_"
char id=96     x=122   y=109   width=7     height=5     xoffset=0     yoffset=5     xadvance=8     page=0 chnl=0 letter="`"
char id=97     x=106   y=92    width=13    height=13    xoffset=0     yoffset=11    xadvance=14    page=0 chnl=0 letter="a"
char id=98     x=47    y=71    width=13    height=19    xoffset=0     yoffset=5     xadvance=14    page=0 chnl=0 letter="b"
char id=99     x=121   y=92    width=13    height=13    xoffset=0     yoffset=11    xadvance=14    page=0 chnl=0 letter="c"
char id=100    x=62    y=71    width=13    height=19    xoffset=0     yoffset=5     xadvance=14    page=0 chnl=0 letter="d"
char id=101    x=136   y=92    width=13    height=13    xoffset=0     yoffset=11    xadvance=14    page=0 chnl=0 letter="e"
char id=102    x=152   y=71    width=9     height=19    xoffset=0     yoffset=5     xadvance=10    page=0 chnl=0 letter="f"
char id=103    x=77    y=71    width=13    height=19    xoffset=0     yoffset=11    xadvance=14    page=0 chnl=0 letter="g"
char id=104    x=189   y=50    width=14    height=19    xoffset=0     yoffset=5     xadvance=14    page=0 chnl=0 letter="h"
char id=105    x=197   y=71    width=5     height=19    xoffset=0     yoffset=5     xadvance=6     page=0 chnl=0 letter="i"
char id=106    x=2     y=2     width=7     height=25    xoffset=0     yoffset=5     xadvance=8     page=0 chnl=0 letter="j"
char id=107    x=92    y=71    width=13    height=19    xoffset=0     yoffset=5     xadvance=14    page=0 chnl=0 letter="k"
char id=108    x=204   y=71    width=5     height=19    xoffset=0     yoffset=5     xadvance=6     page=0 chnl=0 letter="l"
char id=109    x=45    y=92    width=21    height=13    xoffset=0     yoffset=11    xadvance=22    page=0 chnl=0 letter="m"
char id=110    x=151   y=92    width=13    height=13    xoffset=0     yoffset=11    xadvance=14    page=0 chnl=0 letter="n"
char id=111    x=166   y=92    width=13    height=13    xoffset=0     yoffset=11    xadvance=14    page=0 chnl=0 letter="o"
char id=112    x=107   y=71    width=13    height=19    xoffset=0     yoffset=11    xadvance=14    page=0 chnl=0 letter="p"
char id=113    x=122   y=71    width=13    height=19    xoffset=0     yoffset=11    xadvance=14    page=0 chnl=0 letter="q"
char id=114    x=241   y=92    width=11    height=13    xoffset=0     yoffset=11    xadvance=12    page=0 chnl=0 letter="r"
char id=115    x=2     y=109   width=11    height=13    xoffset=0     yoffset=11    xadvance=12    page=0 chnl=0 letter="s"
char id=116    x=163   y=71    width=9     height=19    xoffset=0     yoffset=5     xadvance=10    page=0 chnl=0 letter="t"
char id=117    x=181   y=92    width=13    height=13    xoffset=0     yoffset=11    xadvance=14    page=0 chnl=0 letter="u"
char id=118    x=196   y=92    width=13    height=13    xoffset=0     yoffset=11    xadvance=14    page=0 chnl=0 letter="v"
char id=119    x=68    y=92    width=21    height=13    xoffset=0     yoffset=11    xadvance=22    page=0 chnl=0 letter="w"
char id=120    x=211   y=92    width=13    height=13    xoffset=0     yoffset=11    xadvance=14    page=0 chnl=0 letter="x"
char id=121    x=137   y=71    width=13    height=19    xoffset=0     yoffset=11    xadvance=14    page=0 chnl=0 letter="y"
char id=122    x=226   y=92    width=13    height=13    xoffset=0     yoffset=11    xadvance=14    page=0 chnl=0 letter="z"
char id=123    x=50    y=2     width=9     height=23    xoffset=0     yoffset=3     xadvance=10    page=0 chnl=0 letter="{"
char id=124    x=90    y=2     width=5     height=23    xoffset=2     yoffset=3     xadvance=10    page=0 chnl=0 letter="|"
char id=125    x=61    y=2     width=9     height=23    xoffset=0     yoffset=3     xadvance=10    page=0 chnl=0 letter="}"
char id=126    x=63    y=109   width=13    height=7     xoffset=0     yoffset=5     xadvance=14    page=0 chnl=0 letter="~"
